PLAYBOOK: temp1.yml ************************************************************
1 plays in temp1.yml

PLAY [all] *********************************************************************

TASK [Test template] ***********************************************************
task path: /root/arockia/ansible_env/F5_REST/temp1.yml:8
fatal: [localhost]: FAILED! => {
    "changed": false,
    "failed": true,
    "invocation": {
        "module_args": {
            "dest": "templates/temp.yml",
            "src": "templates/temp.j2"
        },
        "module_name": "template"
    },
    "msg": "AnsibleUndefinedVariable: 'parse_op' is undefined"
}
        to retry, use: --limit @/root/arockia/ansible_env/F5_REST/temp1.retry

PLAY RECAP *********************************************************************
localhost                  : ok=0    changed=0    unreachable=0    failed=1

